[
  {
    "name": "Luftsprung",
    "description": "Walnussbratling mit Gorgonzolacrème und Rauke",
    "type": "V",
    "price": 7.8
  },
  {
    "name": "Landei",
    "description": "gegrillte Hähnchenbrust, viele Sprossen und Schnittlauchsoße",
    "type": "B",
    "price": 7.5
  },
  {
    "name": "Klassik",
    "description": "Die Mutter aller Burger",
    "type": "C",
    "price": 6.5
  },
  {
    "name": "Heumilchkäse",
    "description": "der Klassiker mit Käse",
    "type": "C",
    "price": 6.9
  },
  {
    "name": "Käse & Speck",
    "description": "Heumilchkäse & Speck",
    "type": "C",
    "price": 7.8
  },
  {
    "name": "Elsässer",
    "description": "Brie & Preiselbeeren",
    "type": "C",
    "price": 7.8
  }
]